\relax 
\catcode `"\active 
\select@language{finnish}
\@writefile{toc}{\select@language{finnish}}
\@writefile{lof}{\select@language{finnish}}
\@writefile{lot}{\select@language{finnish}}
\@writefile{lof}{\contentsline {figure}{\numberline {1}{\ignorespaces Harmaa pinta-ala voidaan laskea summaamalla $dx$ levyisten palkkien aloja. Palkkien korkeus on funktion $f$ arvo kyseisell\IeC {\"a} kohdalla.}}{1}}
\newlabel{integraali}{{1}{1}}
\@writefile{lof}{\contentsline {figure}{\numberline {2}{\ignorespaces Polku, jonka varrella on kulkusuuntaan osoittavia vektoreita. Katkoviiva on piirretty vain hahmottamisen helpottamiseksi.}}{2}}
\newlabel{polku}{{2}{2}}
\@writefile{lof}{\contentsline {figure}{\numberline {3}{\ignorespaces Infinitesimaalisen vektorin $\mathaccentV {vec}17E{dl}$ komponentit.}}{3}}
\newlabel{dl}{{3}{3}}
\@writefile{lof}{\contentsline {figure}{\numberline {4}{\ignorespaces Pintaelementti sylinteripinnalla.}}{4}}
\newlabel{dA}{{4}{4}}
\@writefile{lof}{\contentsline {figure}{\numberline {5}{\ignorespaces Jos tiedet\IeC {\"a}\IeC {\"a}n sylinterin pintaelementti, niin niit\IeC {\"a} summaamalla voidaan rakentaa sylinteripinnan mukaista geometriaa. Integrointirajat m\IeC {\"a}\IeC {\"a}ritt\IeC {\"a}v\IeC {\"a}t sen, kuinka suuri osa sylinteripinnasta tulee katetuksi.}}{4}}
\newlabel{sylinterinPinta}{{5}{4}}
