<?xml version="1.0" encoding="UTF-8" standalone="no"?>
<!-- Created with Inkscape (http://www.inkscape.org/) -->

<svg
   xmlns:dc="http://purl.org/dc/elements/1.1/"
   xmlns:cc="http://creativecommons.org/ns#"
   xmlns:rdf="http://www.w3.org/1999/02/22-rdf-syntax-ns#"
   xmlns:svg="http://www.w3.org/2000/svg"
   xmlns="http://www.w3.org/2000/svg"
   xmlns:sodipodi="http://sodipodi.sourceforge.net/DTD/sodipodi-0.dtd"
   xmlns:inkscape="http://www.inkscape.org/namespaces/inkscape"
   width="210mm"
   height="297mm"
   viewBox="0 0 744.09448819 1052.3622047"
   id="svg2"
   version="1.1"
   inkscape:version="0.91 r13725"
   sodipodi:docname="derivaatta.svg">
  <defs
     id="defs4">
    <marker
       inkscape:stockid="Arrow1Mend"
       orient="auto"
       refY="0.0"
       refX="0.0"
       id="Arrow1Mend"
       style="overflow:visible;"
       inkscape:isstock="true">
      <path
         id="path4197"
         d="M 0.0,0.0 L 5.0,-5.0 L -12.5,0.0 L 5.0,5.0 L 0.0,0.0 z "
         style="fill-rule:evenodd;stroke:#000000;stroke-width:1pt;stroke-opacity:1;fill:#000000;fill-opacity:1"
         transform="scale(0.4) rotate(180) translate(10,0)" />
    </marker>
    <marker
       inkscape:stockid="Arrow2Mend"
       orient="auto"
       refY="0.0"
       refX="0.0"
       id="Arrow2Mend"
       style="overflow:visible;"
       inkscape:isstock="true">
      <path
         id="path4215"
         style="fill-rule:evenodd;stroke-width:0.625;stroke-linejoin:round;stroke:#000000;stroke-opacity:1;fill:#000000;fill-opacity:1"
         d="M 8.7185878,4.0337352 L -2.2072895,0.016013256 L 8.7185884,-4.0017078 C 6.9730900,-1.6296469 6.9831476,1.6157441 8.7185878,4.0337352 z "
         transform="scale(0.6) rotate(180) translate(0,0)" />
    </marker>
    <marker
       inkscape:stockid="Arrow1Lend"
       orient="auto"
       refY="0.0"
       refX="0.0"
       id="Arrow1Lend"
       style="overflow:visible;"
       inkscape:isstock="true">
      <path
         id="path4191"
         d="M 0.0,0.0 L 5.0,-5.0 L -12.5,0.0 L 5.0,5.0 L 0.0,0.0 z "
         style="fill-rule:evenodd;stroke:#000000;stroke-width:1pt;stroke-opacity:1;fill:#000000;fill-opacity:1"
         transform="scale(0.8) rotate(180) translate(12.5,0)" />
    </marker>
    <marker
       inkscape:stockid="Arrow1Mstart"
       orient="auto"
       refY="0.0"
       refX="0.0"
       id="Arrow1Mstart"
       style="overflow:visible"
       inkscape:isstock="true">
      <path
         id="path4194"
         d="M 0.0,0.0 L 5.0,-5.0 L -12.5,0.0 L 5.0,5.0 L 0.0,0.0 z "
         style="fill-rule:evenodd;stroke:#000000;stroke-width:1pt;stroke-opacity:1;fill:#000000;fill-opacity:1"
         transform="scale(0.4) translate(10,0)" />
    </marker>
    <marker
       inkscape:stockid="Arrow1Lstart"
       orient="auto"
       refY="0.0"
       refX="0.0"
       id="Arrow1Lstart"
       style="overflow:visible"
       inkscape:isstock="true">
      <path
         id="path4188"
         d="M 0.0,0.0 L 5.0,-5.0 L -12.5,0.0 L 5.0,5.0 L 0.0,0.0 z "
         style="fill-rule:evenodd;stroke:#000000;stroke-width:1pt;stroke-opacity:1;fill:#000000;fill-opacity:1"
         transform="scale(0.8) translate(12.5,0)" />
    </marker>
  </defs>
  <sodipodi:namedview
     id="base"
     pagecolor="#ffffff"
     bordercolor="#666666"
     borderopacity="1.0"
     inkscape:pageopacity="0.0"
     inkscape:pageshadow="2"
     inkscape:zoom="0.7"
     inkscape:cx="47.88122"
     inkscape:cy="436.0184"
     inkscape:document-units="px"
     inkscape:current-layer="layer1"
     showgrid="false"
     inkscape:window-width="1301"
     inkscape:window-height="744"
     inkscape:window-x="65"
     inkscape:window-y="24"
     inkscape:window-maximized="1" />
  <metadata
     id="metadata7">
    <rdf:RDF>
      <cc:Work
         rdf:about="">
        <dc:format>image/svg+xml</dc:format>
        <dc:type
           rdf:resource="http://purl.org/dc/dcmitype/StillImage" />
        <dc:title></dc:title>
      </cc:Work>
    </rdf:RDF>
  </metadata>
  <g
     inkscape:label="Layer 1"
     inkscape:groupmode="layer"
     id="layer1">
    <path
       style="fill:none;fill-rule:evenodd;stroke:#000000;stroke-width:3.58102679;stroke-linecap:butt;stroke-linejoin:miter;stroke-miterlimit:4;stroke-dasharray:none;stroke-opacity:1"
       d="m 71.781977,235.33302 c 0,459.45491 602.572073,456.8591 602.572073,456.8591"
       id="path3374"
       inkscape:connector-curvature="0" />
    <path
       style="fill:none;fill-rule:evenodd;stroke:#000000;stroke-width:4.05898666;stroke-linecap:butt;stroke-linejoin:miter;stroke-miterlimit:4;stroke-dasharray:none;stroke-opacity:1;marker-start:url(#Arrow1Mstart)"
       d="m 719.97795,732.3622 -659.014843,0"
       id="path4180"
       inkscape:connector-curvature="0" />
    <path
       style="fill:none;fill-rule:evenodd;stroke:#000000;stroke-width:3.85652828;stroke-linecap:butt;stroke-linejoin:miter;stroke-miterlimit:4;stroke-dasharray:none;stroke-opacity:1;marker-end:url(#Arrow2Mend)"
       d="M 62.957484,732.49156 59.997891,186.37591"
       id="path4182"
       inkscape:connector-curvature="0" />
    <text
       xml:space="preserve"
       style="font-style:italic;font-weight:500;font-size:40px;line-height:125%;font-family:'URW Chancery L';letter-spacing:0px;word-spacing:0px;fill:#000000;fill-opacity:1;stroke:none;stroke-width:1px;stroke-linecap:butt;stroke-linejoin:miter;stroke-opacity:1;-inkscape-font-specification:'URW Chancery L Medium Italic';font-stretch:normal;font-variant:normal;"
       x="655.71429"
       y="783.79077"
       id="text4998"
       sodipodi:linespacing="125%"><tspan
         sodipodi:role="line"
         id="tspan5000"
         x="655.71429"
         y="783.79077" /></text>
    <path
       style="font-style:italic;font-weight:500;font-size:40px;line-height:125%;font-family:'URW Chancery L';letter-spacing:0px;word-spacing:0px;fill:#000000;fill-opacity:1;stroke:none;stroke-width:1px;stroke-linecap:butt;stroke-linejoin:miter;stroke-opacity:1;-inkscape-font-specification:'URW Chancery L Medium Italic';font-stretch:normal;font-variant:normal;"
       d="M 86.900391 184.94531 C 86.878244 185.03252 86.855953 185.12176 86.833984 185.20703 C 86.856119 185.20684 86.878256 185.20722 86.900391 185.20703 C 86.900001 185.11972 86.900742 185.03263 86.900391 184.94531 z "
       id="text5020" />
    <text
       xml:space="preserve"
       style="font-style:italic;font-weight:500;font-size:40px;line-height:125%;font-family:'URW Chancery L';letter-spacing:0px;word-spacing:0px;fill:#000000;fill-opacity:1;stroke:none;stroke-width:1px;stroke-linecap:butt;stroke-linejoin:miter;stroke-opacity:1;-inkscape-font-specification:'URW Chancery L Medium Italic';font-stretch:normal;font-variant:normal;"
       x="688.57141"
       y="696.64795"
       id="text5024"
       sodipodi:linespacing="125%"><tspan
         sodipodi:role="line"
         id="tspan5026"
         x="688.57141"
         y="696.64795" /></text>
    <path
       style="font-style:italic;font-weight:500;font-size:40px;line-height:125%;font-family:'URW Chancery L';letter-spacing:0px;word-spacing:0px;fill:#000000;fill-opacity:1;stroke:none;stroke-width:1px;stroke-linecap:butt;stroke-linejoin:miter;stroke-opacity:1;-inkscape-font-specification:'URW Chancery L Medium Italic';font-stretch:normal;font-variant:normal;"
       d="M 723.72656 681.63672 C 723.58571 681.63672 723.45552 681.66577 723.32422 681.68359 C 723.4272 681.90444 723.70825 682.27337 724.04688 682.68945 C 724.24324 682.59876 724.43962 682.50814 724.63477 682.41602 C 724.6463 682.32376 724.65817 682.25043 724.66992 682.16211 C 724.38824 681.96885 724.0857 681.75728 723.89648 681.64844 C 723.83997 681.6447 723.78904 681.63672 723.72656 681.63672 z M 724.63477 682.41602 C 724.6017 682.68048 724.57277 682.98511 724.54297 683.2832 C 724.60376 683.35341 724.64573 683.40846 724.70898 683.48047 L 725.04492 682.41211 C 724.97116 682.35837 724.94643 682.35073 724.87891 682.30273 C 724.79821 682.34134 724.71577 682.37777 724.63477 682.41602 z M 725.11328 682.19141 C 725.07313 682.21092 725.03243 682.23061 724.99219 682.25 C 725.01559 682.28583 725.03997 682.32096 725.0625 682.35742 L 725.11328 682.19141 z "
       id="text5036" />
    <text
       xml:space="preserve"
       style="font-style:italic;font-weight:500;font-size:40px;line-height:125%;font-family:'URW Chancery L';letter-spacing:0px;word-spacing:0px;fill:#000000;fill-opacity:1;stroke:none;stroke-width:1px;stroke-linecap:butt;stroke-linejoin:miter;stroke-opacity:1;-inkscape-font-specification:'URW Chancery L Medium Italic';font-stretch:normal;font-variant:normal;"
       x="284.28571"
       y="226.64792"
       id="text5040"
       sodipodi:linespacing="125%"><tspan
         sodipodi:role="line"
         id="tspan5042"
         x="284.28571"
         y="226.64792" /></text>
    <path
       style="fill:none;fill-rule:evenodd;stroke:#000000;stroke-width:2;stroke-linecap:butt;stroke-linejoin:miter;stroke-opacity:1;stroke-miterlimit:4;stroke-dasharray:4,2;stroke-dashoffset:0"
       d="m 64.295809,492.35184 c 92.865901,0 92.865901,0 92.865901,0 0,237.16358 -1.34588,237.16358 -1.34588,237.16358"
       id="path5068"
       inkscape:connector-curvature="0" />
    <path
       style="fill:none;fill-rule:evenodd;stroke:#000000;stroke-width:2;stroke-linecap:butt;stroke-linejoin:miter;stroke-miterlimit:4;stroke-dasharray:4, 2;stroke-dashoffset:0;stroke-opacity:1"
       d="m 242.8151,568.32903 c 0,161.37662 0,162.85714 0,162.85714"
       id="path5070"
       inkscape:connector-curvature="0" />
    <path
       style="fill:none;fill-rule:evenodd;stroke:#000000;stroke-width:2.16429925;stroke-linecap:butt;stroke-linejoin:miter;stroke-miterlimit:4;stroke-dasharray:4.32859851, 2.16429926;stroke-dashoffset:0;stroke-opacity:1"
       d="m 62.857143,569.50506 c 180.675957,0 180.675957,0 180.675957,0"
       id="path5072"
       inkscape:connector-curvature="0" />
    <text
       xml:space="preserve"
       style="font-style:italic;font-weight:500;font-size:40px;line-height:125%;font-family:'URW Chancery L';letter-spacing:0px;word-spacing:0px;fill:#000000;fill-opacity:1;stroke:none;stroke-width:1px;stroke-linecap:butt;stroke-linejoin:miter;stroke-opacity:1;-inkscape-font-specification:'URW Chancery L Medium Italic';font-stretch:normal;font-variant:normal;"
       x="171.42857"
       y="766.64795"
       id="text5105"
       sodipodi:linespacing="125%"><tspan
         sodipodi:role="line"
         id="tspan5107"
         x="171.42857"
         y="766.64795" /></text>
    <circle
       id="path5015"
       style="fill:#000000;stroke:none"
       cx="60.609154"
       cy="490.71738"
       r="2" />
    <path
       style="fill:none;fill-rule:evenodd;stroke:#000000;stroke-width:2;stroke-linecap:butt;stroke-linejoin:miter;stroke-miterlimit:4;stroke-dasharray:none;stroke-opacity:1"
       d="m 60.609153,491.72754 -4.894867,0 -3.926021,1.42857 -1.785714,3.84895 0,27.80497 -6.313453,3.78808 6.060915,4.79822 -0.21097,29.32484 1.387003,4.34939 4.431097,1.42857 5.757086,0"
       id="path5019"
       inkscape:connector-curvature="0"
       sodipodi:nodetypes="ccccccccccc" />
    <path
       style="fill:none;fill-rule:evenodd;stroke:#000000;stroke-width:2;stroke-linecap:butt;stroke-linejoin:miter;stroke-miterlimit:4;stroke-dasharray:none;stroke-opacity:1"
       d="m 155.44959,734.10118 0,4.33245 1.07143,4.3043 4.19327,0.71429 32.80729,0 4.3594,5.56609 5.52189,-5.34345 35.88043,0.19775 4.15943,-1.04654 0.35714,-4.0353 0,-5.13488"
       id="path5019-3"
       inkscape:connector-curvature="0"
       sodipodi:nodetypes="ccccccccccc" />
    <path
       style="fill:none;fill-rule:evenodd;stroke:#ff0000;stroke-width:3;stroke-linecap:butt;stroke-linejoin:miter;stroke-miterlimit:4;stroke-dasharray:none;stroke-opacity:1"
       d="M 412.85714,720.93364 71.428576,413.79077"
       id="path4192"
       inkscape:connector-curvature="0"
       sodipodi:nodetypes="cc" />
  </g>
</svg>
