%!PS-Adobe-3.0 EPSF-3.0
%%Creator: cairo 1.14.6 (http://cairographics.org)
%%CreationDate: Tue Oct 24 11:56:10 2017
%%Pages: 1
%%DocumentData: Clean7Bit
%%LanguageLevel: 2
%%BoundingBox: 33 240 583 698
%%EndComments
%%BeginProlog
save
50 dict begin
/q { gsave } bind def
/Q { grestore } bind def
/cm { 6 array astore concat } bind def
/w { setlinewidth } bind def
/J { setlinecap } bind def
/j { setlinejoin } bind def
/M { setmiterlimit } bind def
/d { setdash } bind def
/m { moveto } bind def
/l { lineto } bind def
/c { curveto } bind def
/h { closepath } bind def
/re { exch dup neg 3 1 roll 5 3 roll moveto 0 rlineto
      0 exch rlineto 0 rlineto closepath } bind def
/S { stroke } bind def
/f { fill } bind def
/f* { eofill } bind def
/n { newpath } bind def
/W { clip } bind def
/W* { eoclip } bind def
/BT { } bind def
/ET { } bind def
/pdfmark where { pop globaldict /?pdfmark /exec load put }
    { globaldict begin /?pdfmark /pop load def /pdfmark
    /cleartomark load def end } ifelse
/BDC { mark 3 1 roll /BDC pdfmark } bind def
/EMC { mark /EMC pdfmark } bind def
/cairo_store_point { /cairo_point_y exch def /cairo_point_x exch def } def
/Tj { show currentpoint cairo_store_point } bind def
/TJ {
  {
    dup
    type /stringtype eq
    { show } { -0.001 mul 0 cairo_font_matrix dtransform rmoveto } ifelse
  } forall
  currentpoint cairo_store_point
} bind def
/cairo_selectfont { cairo_font_matrix aload pop pop pop 0 0 6 array astore
    cairo_font exch selectfont cairo_point_x cairo_point_y moveto } bind def
/Tf { pop /cairo_font exch def /cairo_font_matrix where
      { pop cairo_selectfont } if } bind def
/Td { matrix translate cairo_font_matrix matrix concatmatrix dup
      /cairo_font_matrix exch def dup 4 get exch 5 get cairo_store_point
      /cairo_font where { pop cairo_selectfont } if } bind def
/Tm { 2 copy 8 2 roll 6 array astore /cairo_font_matrix exch def
      cairo_store_point /cairo_font where { pop cairo_selectfont } if } bind def
/g { setgray } bind def
/rg { setrgbcolor } bind def
/d1 { setcachedevice } bind def
%%EndProlog
%%BeginSetup
%%EndSetup
%%Page: 1 1
%%BeginPageSetup
%%PageBoundingBox: 33 240 583 698
%%EndPageSetup
q 33 240 550 458 rectclip q
0 g
2.864821 w
0 J
0 j
[] 0.0 d
4 M q 1 0 0 -1 0 841.889771 cm
57.426 188.266 m 57.426 555.832 539.484 553.754 539.484 553.754 c S Q
3.247189 w
q 1 0 0 -1 0 841.889771 cm
575.98 585.891 m 48.77 585.891 l S Q
562.992 255.999 m 556.5 249.507 l 579.23 255.999 l 556.5 262.495 l h
562.992 255.999 m f*
1.623595 w
q -1 0 0 1 0 841.889771 cm
-562.992 -585.891 m -556.5 -592.383 l -579.23 -585.891 l -556.5 -579.395
 l h
-562.992 -585.891 m S Q
3.085223 w
q 1 0 0 -1 0 841.889771 cm
50.367 585.992 m 48 149.102 l S Q
40.617 676.609 m 47.945 696.874 l 55.492 676.691 l 51.086 679.898 45.078
 679.847 40.617 676.609 c h
40.617 676.609 m f*
1.156941 w
1 j
q 0.00541935 -1 -1 -0.00541935 0 841.889771 cm
165.497 -39.72 m 145.271 -47.158 l 165.495 -54.595 l 162.264 -50.207 162.282
 -44.199 165.497 -39.72 c h
165.497 -39.72 m S Q
69.52 693.933 m 69.504 693.862 69.484 693.792 69.469 693.726 c 69.484 693.726
 69.504 693.726 69.52 693.726 c 69.52 693.792 69.52 693.862 69.52 693.933
 c h
69.52 693.933 m f
578.98 296.581 m 578.867 296.581 578.766 296.558 578.66 296.542 c 578.742
 296.366 578.965 296.069 579.238 295.737 c 579.395 295.812 579.551 295.882
 579.707 295.956 c 579.719 296.03 579.727 296.089 579.734 296.159 c 579.512
 296.316 579.27 296.484 579.117 296.569 c 579.07 296.573 579.031 296.581
 578.98 296.581 c h
579.707 295.956 m 579.68 295.745 579.66 295.503 579.633 295.265 c 579.684
 295.206 579.715 295.163 579.766 295.105 c 580.035 295.96 l 579.977 296.003
 579.957 296.011 579.902 296.046 c 579.84 296.015 579.773 295.987 579.707
 295.956 c h
580.09 296.136 m 580.059 296.12 580.027 296.105 579.992 296.089 c 580.012
 296.062 580.031 296.034 580.051 296.003 c h
580.09 296.136 m f
1.6 w
0 j
[ 3.2 1.6] 0 d
q 1 0 0 -1 0 841.889771 cm
51.438 393.883 m 125.73 393.883 l 125.73 583.613 124.652 583.613 124.652
 583.613 c S Q
[ 3.2 1.6] 0 d
q 1 0 0 -1 0 841.889771 cm
194.254 454.664 m 194.254 584.949 l S Q
1.731439 w
[ 3.462879 1.731439] 0 d
q 1 0 0 -1 0 841.889771 cm
50.285 455.605 m 194.828 455.605 l S Q
50.086 449.316 m 50.086 448.433 49.371 447.714 48.488 447.714 c 47.605 
447.714 46.887 448.433 46.887 449.316 c 46.887 450.198 47.605 450.917 48.488
 450.917 c 49.371 450.917 50.086 450.198 50.086 449.316 c h
50.086 449.316 m f
1.6 w
[] 0.0 d
q 1 0 0 -1 0 841.889771 cm
48.488 393.383 m 44.57 393.383 l 41.43 394.523 l 40.004 397.605 l 40.004
 419.848 l 34.953 422.879 l 39.801 426.719 l 39.633 450.176 l 40.742 453.656
 l 44.285 454.801 l 48.891 454.801 l S Q
q 1 0 0 -1 0 841.889771 cm
124.359 587.281 m 124.359 590.746 l 125.219 594.191 l 128.57 594.762 l 
154.816 594.762 l 158.305 599.215 l 162.723 594.941 l 191.426 595.098 l 
194.754 594.262 l 195.039 591.031 l 195.039 586.926 l S Q
1 0 0 rg
2.4 w
q 1 0 0 -1 0 841.889771 cm
330.285 576.746 m 57.145 331.031 l S Q
Q Q
showpage
%%Trailer
end restore
%%EOF
