%!PS-Adobe-3.0 EPSF-3.0
%%Creator: cairo 1.14.6 (http://cairographics.org)
%%CreationDate: Thu Oct 26 12:38:22 2017
%%Pages: 1
%%DocumentData: Clean7Bit
%%LanguageLevel: 2
%%BoundingBox: 41 655 248 796
%%EndComments
%%BeginProlog
save
50 dict begin
/q { gsave } bind def
/Q { grestore } bind def
/cm { 6 array astore concat } bind def
/w { setlinewidth } bind def
/J { setlinecap } bind def
/j { setlinejoin } bind def
/M { setmiterlimit } bind def
/d { setdash } bind def
/m { moveto } bind def
/l { lineto } bind def
/c { curveto } bind def
/h { closepath } bind def
/re { exch dup neg 3 1 roll 5 3 roll moveto 0 rlineto
      0 exch rlineto 0 rlineto closepath } bind def
/S { stroke } bind def
/f { fill } bind def
/f* { eofill } bind def
/n { newpath } bind def
/W { clip } bind def
/W* { eoclip } bind def
/BT { } bind def
/ET { } bind def
/pdfmark where { pop globaldict /?pdfmark /exec load put }
    { globaldict begin /?pdfmark /pop load def /pdfmark
    /cleartomark load def end } ifelse
/BDC { mark 3 1 roll /BDC pdfmark } bind def
/EMC { mark /EMC pdfmark } bind def
/cairo_store_point { /cairo_point_y exch def /cairo_point_x exch def } def
/Tj { show currentpoint cairo_store_point } bind def
/TJ {
  {
    dup
    type /stringtype eq
    { show } { -0.001 mul 0 cairo_font_matrix dtransform rmoveto } ifelse
  } forall
  currentpoint cairo_store_point
} bind def
/cairo_selectfont { cairo_font_matrix aload pop pop pop 0 0 6 array astore
    cairo_font exch selectfont cairo_point_x cairo_point_y moveto } bind def
/Tf { pop /cairo_font exch def /cairo_font_matrix where
      { pop cairo_selectfont } if } bind def
/Td { matrix translate cairo_font_matrix matrix concatmatrix dup
      /cairo_font_matrix exch def dup 4 get exch 5 get cairo_store_point
      /cairo_font where { pop cairo_selectfont } if } bind def
/Tm { 2 copy 8 2 roll 6 array astore /cairo_font_matrix exch def
      cairo_store_point /cairo_font where { pop cairo_selectfont } if } bind def
/g { setgray } bind def
/rg { setrgbcolor } bind def
/d1 { setcachedevice } bind def
%%EndProlog
%%BeginSetup
%%EndSetup
%%Page: 1 1
%%BeginPageSetup
%%PageBoundingBox: 41 655 248 796
%%EndPageSetup
q 41 655 207 141 rectclip q
0 g
0.8 w
0 J
0 j
[] 0.0 d
4 M q 1 0 0 -1 0 841.889771 cm
133.34 48.312 m 133.457 132.562 l 42.832 184.887 l S Q
133.344 790.374 m 134.945 788.776 l 133.34 794.374 l 131.746 788.773 l 
h
133.344 790.374 m f*
0.4 w
q 0.00139881 -1 -1 -0.00139881 0 841.889771 cm
51.702 -133.271 m 53.302 -134.871 l 47.702 -133.273 l 53.301 -131.672 l
 h
51.702 -133.271 m S Q
45.602 658.605 m 46.188 660.788 l 42.137 656.605 l 47.789 658.019 l h
45.602 658.605 m f*
0.34641 w
q 1 0.57735 0.57735 -1 0 841.889771 cm
-45.164 157.21 m -43.779 155.826 l -48.628 157.21 l -43.777 158.597 l h
-45.164 157.21 m S Q
0.8 w
q 1 0 0 -1 0 841.889771 cm
133.145 132.176 m 246.285 132.176 l S Q
243.086 709.714 m 241.484 708.112 l 247.086 709.714 l 241.484 711.316 l
 h
243.086 709.714 m f*
0.4 w
q -1 0 0 1 0 841.889771 cm
-243.086 -132.176 m -241.484 -133.777 l -247.086 -132.176 l -241.484 -130.574
 l h
-243.086 -132.176 m S Q
0.837127 w
[ 0.837127 0.837127] 0 d
q 1 0 0 -1 0 841.889771 cm
60.285 175.031 m 172.285 175.031 l S Q
0.8 w
[ 0.8 0.8] 0 d
q 1 0 0 -1 0 841.889771 cm
172.465 175.297 m 233.895 132.129 l S Q
[] 0.0 d
q 1 0 0 -1 0 841.889771 cm
232.57 115.891 m 216.418 138.344 195.559 150.336 172.57 157.605 c 114.445
 128.492 89.348 147.645 59.715 160.176 c S Q
q 1 0 0 -1 0 841.889771 cm
59.715 159.605 m 74.348 122.98 94.582 90.738 133.43 73.031 c 149.816 109.277
 182.66 123.836 232.57 115.891 c S Q
q 1 0 0 -1 0 841.889771 cm
86 175.316 m 86 148.746 l S Q
[ 0.8 0.8] 0 d
q 1 0 0 -1 0 841.889771 cm
86 175.031 m 160.148 132.223 l S Q
[ 0.8 0.8] 0 d
q 1 0 0 -1 0 841.889771 cm
224.855 138.461 m 123.145 138.461 l S Q
[] 0.0 d
q 1 0 0 -1 0 841.889771 cm
172.855 175.031 m 173.145 157.891 l 224.285 138.746 m 224.285 126.176 l
 149.145 138.176 m 149.145 109.031 l S Q
q 1 0 0 -1 0 841.889771 cm
86 148.746 m 107.348 125.656 128.551 107.215 149.145 109.031 c S Q
q 1 0 0 -1 0 841.889771 cm
148.855 109.031 m 168.77 125.016 193.707 130.953 224.285 125.605 c S Q
1 0 0 rg
0.788461 w
q 1 0 0 -1 0 841.889771 cm
86.258 147.715 m 107.598 124.848 128.797 106.582 149.383 108.383 c S Q
0.8 w
q 1 0 0 -1 0 841.889771 cm
86.715 173.746 m 136.68 145.027 l S Q
q 1 0 0 -1 0 841.889771 cm
137.785 144.012 m 148.512 137.82 l S Q
0 0 1 rg
0.796964 w
q 1 0 0 -1 0 841.889771 cm
149.465 137.746 m 210.285 137.746 l S Q
0.8664 w
q 1 0 0 -1 0 841.889771 cm
212.789 137.746 m 225.012 137.746 l S Q
0.8 w
q 1 0 0 -1 0 841.889771 cm
149.234 108.316 m 169.148 124.297 194.082 130.238 224.664 124.887 c S Q
1 0 0 rg
0.801157 w
q 1 0 0 -1 0 841.889771 cm
86.039 174.383 m 172.676 174.383 l S Q
0 0 1 rg
0.800293 w
q 1 0 0 -1 0 841.889771 cm
173.254 173.758 m 225.238 137.438 l S Q
1 0 0 rg
0.816093 w
q 1 0 0 -1 0 841.889771 cm
86.512 147.492 m 86.512 174.93 l S Q
0 0 1 rg
0.80992 w
q 1 0 0 -1 0 841.889771 cm
224.984 137.688 m 224.961 124.48 l S Q
1 0 0 rg
0.8 w
q 1 0 0 -1 0 841.889771 cm
86.57 147.891 m 113.355 136.793 142.266 140.992 172.855 157.316 c S Q
0 0 1 rg
q 1 0 0 -1 0 841.889771 cm
149.5 108.676 m 149.355 137.816 l S Q
1 0 0 rg
q 1 0 0 -1 0 841.889771 cm
148.367 138.141 m 148.43 108.531 l S Q
0 0 1 rg
q 1 0 0 -1 0 841.889771 cm
173.32 157.105 m 189.77 151.23 205.773 144.523 224.465 125.566 c S Q
1 0 0 rg
q 1 0 0 -1 0 841.889771 cm
172.625 156.926 m 172.41 174.066 l S Q
0 0 1 rg
q 1 0 0 -1 0 841.889771 cm
173.09 174.105 m 173.41 156.746 l S Q
Q Q
showpage
%%Trailer
end restore
%%EOF
